index = 0
param[0] = 0
prev param = 0.147489
new param = 1.25976
param[1] = 1
prev param = 0.515578
new param = 1.12363
param[2] = 2
prev param = -0.602561
new param = -1.31464
param[3] = 3
prev param = -0.0325809
new param = -1.75153
prev delta = 208.963
new delta = 215.014
index = 6
param[0] = 0
prev param = -0.156585
new param = -0.552731
param[1] = 1
prev param = 0.260056
new param = 0.64955
param[2] = 2
prev param = 0.533204
new param = 0.266604
param[3] = 3
prev param = 0.0539907
new param = -1.45777
prev delta = 60.2438
new delta = 93.8212
index = 6
param[0] = 0
prev param = -0.156585
new param = -0.102392
param[1] = 1
prev param = 0.260056
new param = -0.801981
param[2] = 2
prev param = 0.533204
new param = 1.32009
param[3] = 3
prev param = 0.0539907
new param = -0.015559
prev delta = 60.2438
new delta = 70.3167
index = 1
param[0] = 0
prev param = -1.1197
new param = -2.82466
param[1] = 1
prev param = -0.479406
new param = -1.12043
param[2] = 2
prev param = -0.421381
new param = -0.265793
param[3] = 3
prev param = -0.16521
new param = -0.126622
prev delta = 344.088
new delta = 344.954
index = 4
param[0] = 0
prev param = 0.200267
new param = 0.55947
param[1] = 1
prev param = -0.524578
new param = -1.64411
param[2] = 2
prev param = 0.933187
new param = -1.12123
param[3] = 3
prev param = -0.136284
new param = 2.0943
prev delta = 307.157
new delta = 315.744
index = 5
param[0] = 0
prev param = -0.712511
new param = -0.414925
param[1] = 1
prev param = 0.272547
new param = 0.465319
param[2] = 2
prev param = -0.0843235
new param = 0.11951
param[3] = 3
prev param = -0.237778
new param = 1.11604
prev delta = 63.7085
new delta = 86.8139
index = 2
param[0] = 0
prev param = -0.0098362
new param = 0.00112552
param[1] = 1
prev param = -1.00016
new param = -2.7506
param[2] = 2
prev param = 0.546006
new param = 0.884191
param[3] = 3
prev param = 0.723604
new param = -0.0310261
prev delta = 64.8501
new delta = 111.313
index = 2
param[0] = 0
prev param = -0.0152492
new param = 0.142943
param[1] = 1
prev param = -1.0033
new param = -0.636394
param[2] = 2
prev param = 0.553981
new param = 2.09426
param[3] = 3
prev param = 0.730392
new param = 0.126112
prev delta = 64.3998
new delta = 77.4606
index = 1
param[0] = 0
prev param = -2.68953
new param = -3.73285
param[1] = 1
prev param = -1.06119
new param = -0.0810049
param[2] = 2
prev param = -0.250959
new param = -0.281824
param[3] = 3
prev param = -0.117812
new param = 0.562414
prev delta = 345.547
new delta = 349.634
index = 3
param[0] = 0
prev param = 0.609782
new param = -0.206924
param[1] = 1
prev param = 1.28761
new param = -0.00622945
param[2] = 2
prev param = -0.360734
new param = -0.106419
param[3] = 3
prev param = -0.25713
new param = -0.481035
prev delta = 561.72
new delta = 593.771
index = 6
param[0] = 0
prev param = -0.194369
new param = 0.135581
param[1] = 1
prev param = 0.240078
new param = 1.01319
param[2] = 2
prev param = 0.524665
new param = 1.28043
param[3] = 3
prev param = 0.0479847
new param = 0.131256
prev delta = 73.7648
new delta = 85.0912
index = 5
param[0] = 0
prev param = -0.415424
new param = 0.519504
param[1] = 1
prev param = 0.449888
new param = -0.93054
param[2] = 2
prev param = 0.12593
new param = -1.13415
param[3] = 3
prev param = 1.04953
new param = 1.34188
prev delta = 99.828
new delta = 102.291
index = 7
param[0] = 0
prev param = 0.126217
new param = -0.19831
param[1] = 1
prev param = -0.907942
new param = 0.336675
param[2] = 2
prev param = 0.163877
new param = 1.11209
param[3] = 3
prev param = -0.191738
new param = 0.0932047
prev delta = 102.366
new delta = 112.99
index = 1
param[0] = 0
prev param = -3.60323
new param = -4.20467
param[1] = 1
prev param = -0.0744524
new param = -1.33862
param[2] = 2
prev param = -0.199866
new param = -0.833287
param[3] = 3
prev param = 0.585013
new param = -0.458908
prev delta = 332.006
new delta = 354.221
index = 2
param[0] = 0
prev param = 0.139336
new param = 1.66057
param[1] = 1
prev param = -0.606422
new param = -0.482622
param[2] = 2
prev param = 2.01743
new param = 1.86618
param[3] = 3
prev param = 0.131412
new param = 0.657947
prev delta = 86.6938
new delta = 109.855
index = 1
param[0] = 0
prev param = -3.58282
new param = -2.63012
param[1] = 1
prev param = -0.0665795
new param = 1.81453
param[2] = 2
prev param = -0.204877
new param = -1.02462
param[3] = 3
prev param = 0.576583
new param = -1.07386
prev delta = 335.062
new delta = 353.306
index = 1
param[0] = 0
prev param = -3.58282
new param = -3.75218
param[1] = 1
prev param = -0.0665795
new param = -1.86198
param[2] = 2
prev param = -0.204877
new param = -1.26857
param[3] = 3
prev param = 0.576583
new param = 1.61838
prev delta = 335.062
new delta = 352.912
index = 2
param[0] = 0
prev param = 1.6508
new param = -0.114064
param[1] = 1
prev param = -0.499464
new param = -0.15924
param[2] = 2
prev param = 1.87321
new param = 0.749004
param[3] = 3
prev param = 0.666526
new param = 1.08765
prev delta = 111.865
new delta = 143.55
index = 2
param[0] = 0
prev param = 1.6508
new param = 0.404719
param[1] = 1
prev param = -0.499464
new param = -1.17958
param[2] = 2
prev param = 1.87321
new param = 2.85592
param[3] = 3
prev param = 0.666526
new param = 2.12387
prev delta = 111.865
new delta = 115.527
index = 1
param[0] = 0
prev param = -3.5495
new param = -4.41786
param[1] = 1
prev param = -0.0691821
new param = 0.924214
param[2] = 2
prev param = -0.167861
new param = -2.41053
param[3] = 3
prev param = 0.579614
new param = 0.799329
prev delta = 324.481
new delta = 328.102
index = 4
param[0] = 0
prev param = 0.192242
new param = 0.529187
param[1] = 1
prev param = -0.38334
new param = -0.364944
param[2] = 2
prev param = 0.844874
new param = 1.77639
param[3] = 3
prev param = -0.091498
new param = -0.0423791
prev delta = 289.528
new delta = 296.874
index = 1
param[0] = 0
prev param = -4.29096
new param = -5.35562
param[1] = 1
prev param = 0.904456
new param = -0.38107
param[2] = 2
prev param = -2.29893
new param = -1.96599
param[3] = 3
prev param = 0.805246
new param = 2.47166
prev delta = 319.969
new delta = 336.995
index = 7
param[0] = 0
prev param = -0.228874
new param = -0.590969
param[1] = 1
prev param = 0.373598
new param = -0.37485
param[2] = 2
prev param = 1.07478
new param = -0.336764
param[3] = 3
prev param = 0.14732
new param = -2.34256
prev delta = 117.307
new delta = 118.143
index = 1
param[0] = 0
prev param = -4.2288
new param = -4.81625
param[1] = 1
prev param = 0.88848
new param = 1.66249
param[2] = 2
prev param = -2.25006
new param = -3.08054
param[3] = 3
prev param = 0.792827
new param = 0.229951
prev delta = 316.208
new delta = 321.174
index = 5
param[0] = 0
prev param = -0.364711
new param = -0.0383373
param[1] = 1
prev param = 0.370093
new param = -0.52274
param[2] = 2
prev param = 0.209226
new param = 0.41371
param[3] = 3
prev param = 0.958478
new param = 0.575044
prev delta = 103.593
new delta = 106.836
index = 7
param[0] = 0
prev param = -0.13863
new param = -0.190312
param[1] = 1
prev param = 0.367319
new param = -1.63691
param[2] = 2
prev param = 1.09954
new param = 0.12718
param[3] = 3
prev param = 0.121537
new param = -0.997714
prev delta = 116.945
new delta = 155.413
index = 2
param[0] = 0
prev param = 1.52427
new param = -0.529217
param[1] = 1
prev param = -0.35543
new param = -0.822229
param[2] = 2
prev param = 1.67836
new param = 2.01587
param[3] = 3
prev param = 0.561938
new param = 2.65276
prev delta = 128.362
new delta = 167.46
index = 0
param[0] = 0
prev param = 0.954115
new param = 2.10315
param[1] = 1
prev param = 0.990008
new param = 0.912955
param[2] = 2
prev param = -1.06876
new param = 0.0646898
param[3] = 3
prev param = -1.3662
new param = -3.5694
prev delta = 227.836
new delta = 255.11
index = 6
param[0] = 0
prev param = 0.0968073
new param = 1.51316
param[1] = 1
prev param = 0.950049
new param = 0.291918
param[2] = 2
prev param = 1.28504
new param = 1.56176
param[3] = 3
prev param = 0.160339
new param = 0.565901
prev delta = 98.802
new delta = 123.658
index = 1
param[0] = 0
prev param = -4.68162
new param = -3.22388
param[1] = 1
prev param = 1.648
new param = 2.59932
param[2] = 2
prev param = -2.98849
new param = -3.24653
param[3] = 3
prev param = 0.240028
new param = -0.0805804
prev delta = 318.263
new delta = 331.929
index = 3
param[0] = 0
prev param = 0.674705
new param = 0.631821
param[1] = 1
prev param = 1.08388
new param = 0.843754
param[2] = 2
prev param = -0.102843
new param = 0.239398
param[3] = 3
prev param = -0.271823
new param = -0.435861
prev delta = 502.931
new delta = 515.709
index = 1
param[0] = 0
prev param = -3.06774
new param = -1.78455
param[1] = 1
prev param = 2.51653
new param = 3.46284
param[2] = 2
prev param = -3.09785
new param = -2.63848
param[3] = 3
prev param = -0.0971684
new param = -0.745793
prev delta = 329.226
new delta = 345.751
index = 0
param[0] = 0
prev param = 2.04752
new param = 4.39975
param[1] = 1
prev param = 0.916206
new param = 0.50924
param[2] = 2
prev param = 0.0878546
new param = 1.10909
param[3] = 3
prev param = -3.4248
new param = -2.62542
prev delta = 253.083
new delta = 269.491
index = 2
param[0] = 0
prev param = 1.39171
new param = -0.626155
param[1] = 1
prev param = -0.329813
new param = -2.39765
param[2] = 2
prev param = 1.65738
new param = 1.08662
param[3] = 3
prev param = 0.707983
new param = 0.273714
prev delta = 129.266
new delta = 130.836
index = 4
param[0] = 0
prev param = 0.312984
new param = 1.3759
param[1] = 1
prev param = -0.246487
new param = -2.73764
param[2] = 2
prev param = 1.55053
new param = -0.198485
param[3] = 3
prev param = 0.0268463
new param = 0.512066
prev delta = 297.747
new delta = 298.602
index = 7
param[0] = 0
prev param = -0.0749818
new param = 0.0494913
param[1] = 1
prev param = 0.34466
new param = 0.286651
param[2] = 2
prev param = 1.14106
new param = 1.24237
param[3] = 3
prev param = 0.144443
new param = -0.550514
prev delta = 121.546
new delta = 184.715
index = 6
param[0] = 0
prev param = 1.45778
new param = 1.76183
param[1] = 1
prev param = 0.30512
new param = 1.16865
param[2] = 2
prev param = 1.49893
new param = 1.82479
param[3] = 3
prev param = 0.502362
new param = 1.88235
prev delta = 130.639
new delta = 130.662
index = 2
param[0] = 0
prev param = 1.38211
new param = 1.7835
param[1] = 1
prev param = -0.287644
new param = 0.773113
param[2] = 2
prev param = 1.65064
new param = 0.125986
param[3] = 3
prev param = 0.741382
new param = 0.542826
prev delta = 130.23
new delta = 137.4
index = 2
param[0] = 0
prev param = 1.73365
new param = 1.6272
param[1] = 1
prev param = 0.786048
new param = 1.09582
param[2] = 2
prev param = 0.15739
new param = 0.163673
param[3] = 3
prev param = 0.579127
new param = 0.676402
prev delta = 143.763
new delta = 171.187
index = 1
param[0] = 0
prev param = -2.65378
new param = -4.33694
param[1] = 1
prev param = 2.39913
new param = 0.541058
param[2] = 2
prev param = -2.76787
new param = -1.95354
param[3] = 3
prev param = -0.105107
new param = 0.164283
prev delta = 334.496
new delta = 337.69
index = 0
param[0] = 0
prev param = 4.0614
new param = 4.21533
param[1] = 1
prev param = 0.58082
new param = -0.544781
param[2] = 2
prev param = 1.01711
new param = 1.98867
param[3] = 3
prev param = -2.34974
new param = -0.434861
prev delta = 269.01
new delta = 302.493
index = 4
param[0] = 0
prev param = 0.394269
new param = 2.24943
param[1] = 1
prev param = -0.181421
new param = -1.35859
param[2] = 2
prev param = 1.58749
new param = 0.905303
param[3] = 3
prev param = 0.0966503
new param = -1.83429
prev delta = 300.613
new delta = 303.511
index = 2
param[0] = 0
prev param = 1.60906
new param = 0.29378
param[1] = 1
prev param = 1.11438
new param = 0.659933
param[2] = 2
prev param = 0.149004
new param = -0.175901
param[3] = 3
prev param = 0.682662
new param = 0.610753
prev delta = 171.298
new delta = 182.285
index = 7
param[0] = 0
prev param = 0.0203192
new param = -0.680449
param[1] = 1
prev param = 0.368422
new param = -0.0560856
param[2] = 2
prev param = 1.09186
new param = 1.47739
param[3] = 3
prev param = 0.120176
new param = 0.000140934
prev delta = 124.374
new delta = 140.368
index = 1
param[0] = 0
prev param = -2.55954
new param = -1.32461
param[1] = 1
prev param = 2.37676
new param = 2.94716
param[2] = 2
prev param = -2.70815
new param = -4.25794
param[3] = 3
prev param = -0.0925434
new param = 0.600005
prev delta = 331.451
new delta = 344.036
index = 2
param[0] = 0
prev param = 1.59388
new param = 0.674505
param[1] = 1
prev param = 1.10597
new param = 1.39367
param[2] = 2
prev param = 0.161388
new param = 0.286812
param[3] = 3
prev param = 0.672368
new param = 0.0291281
prev delta = 177.553
new delta = 184.074
index = 2
param[0] = 0
prev param = 1.59497
new param = 1.4715
param[1] = 1
prev param = 1.12753
new param = 0.23473
param[2] = 2
prev param = 0.128883
new param = -0.158278
param[3] = 3
prev param = 0.669895
new param = 0.261888
prev delta = 179.267
new delta = 213.771
index = 4
param[0] = 0
prev param = 0.388691
new param = -0.463605
param[1] = 1
prev param = -0.155835
new param = -0.792635
param[2] = 2
prev param = 1.5675
new param = 2.46342
param[3] = 3
prev param = 0.137521
new param = 0.320635
prev delta = 291.686
new delta = 302.136
index = 4
param[0] = 0
prev param = 0.406868
new param = 0.607621
param[1] = 1
prev param = -0.131615
new param = 0.0881533
param[2] = 2
prev param = 1.52999
new param = 1.22049
param[3] = 3
prev param = 0.12478
new param = -2.16246
prev delta = 291.383
new delta = 292.581
index = 2
param[0] = 0
prev param = 1.60281
new param = -0.158627
param[1] = 1
prev param = 1.12897
new param = 1.28315
param[2] = 2
prev param = 0.15606
new param = -0.848411
param[3] = 3
prev param = 0.695327
new param = 0.309792
prev delta = 175.528
new delta = 254.028
index = 6
param[0] = 0
prev param = 1.65034
new param = 1.63675
param[1] = 1
prev param = 1.18852
new param = 1.832
param[2] = 2
prev param = 1.56356
new param = 0.277972
param[3] = 3
prev param = 1.76942
new param = 2.51717
prev delta = 141.636
new delta = 151.85
index = 7
param[0] = 0
prev param = 0.0212949
new param = 2.31063
param[1] = 1
prev param = 0.377358
new param = 0.530083
param[2] = 2
prev param = 1.11071
new param = 0.764775
param[3] = 3
prev param = 0.16815
new param = -0.00841683
prev delta = 127.751
new delta = 139.874
index = 6
param[0] = 0
prev param = 1.63033
new param = 2.68982
param[1] = 1
prev param = 1.82678
new param = 0.31972
param[2] = 2
prev param = 0.284911
new param = 0.674904
param[3] = 3
prev param = 2.50504
new param = 3.30524
prev delta = 154.72
new delta = 184.791
index = 0
param[0] = 0
prev param = 3.70099
new param = 2.51968
param[1] = 1
prev param = 0.65765
new param = 1.22648
param[2] = 2
prev param = 0.912978
new param = 0.233657
param[3] = 3
prev param = -1.9616
new param = -0.687147
prev delta = 256.043
new delta = 257.671
index = 6
param[0] = 0
prev param = 1.64069
new param = -0.295851
param[1] = 1
prev param = 1.80629
new param = 1.87209
param[2] = 2
prev param = 0.292425
new param = -0.605679
param[3] = 3
prev param = 2.43978
new param = 1.50806
prev delta = 159.418
new delta = 173.04
index = 7
param[0] = 0
prev param = 2.28964
new param = 0.450236
param[1] = 1
prev param = 0.501532
new param = -0.199079
param[2] = 2
prev param = 0.839551
new param = -0.0352484
param[3] = 3
prev param = 0.0371613
new param = -1.33492
prev delta = 136.613
new delta = 147.016
index = 0
param[0] = 0
prev param = 2.46585
new param = 0.777097
param[1] = 1
prev param = 1.23595
new param = -0.763607
param[2] = 2
prev param = 0.208652
new param = -1.69407
param[3] = 3
prev param = -0.634675
new param = -1.96691
prev delta = 257.423
new delta = 282.222
index = 4
param[0] = 0
prev param = 0.438859
new param = 1.54709
param[1] = 1
prev param = 0.00730272
new param = -0.322492
param[2] = 2
prev param = 1.40831
new param = 2.92746
param[3] = 3
prev param = 0.283439
new param = 1.69434
prev delta = 284.168
new delta = 336.487
index = 3
param[0] = 0
prev param = 0.795222
new param = 1.85207
param[1] = 1
prev param = 0.869853
new param = 1.84542
param[2] = 2
prev param = 0.445161
new param = 0.346819
param[3] = 3
prev param = -0.071549
new param = 0.261667
prev delta = 436.029
new delta = 436.135
index = 4
param[0] = 0
prev param = 1.57099
new param = 2.10992
param[1] = 1
prev param = -0.314385
new param = 1.34691
param[2] = 2
prev param = 2.93893
new param = 2.35811
param[3] = 3
prev param = 1.70988
new param = 3.46632
prev delta = 333.002
new delta = 335.222
index = 4
param[0] = 0
prev param = 2.10992
new param = 2.53464
param[1] = 1
prev param = 1.34691
new param = 0.6388
param[2] = 2
prev param = 2.35811
new param = 2.58413
param[3] = 3
prev param = 3.46632
new param = 2.63381
prev delta = 335.222
new delta = 340.764
index = 1
param[0] = 0
prev param = -0.748077
new param = -1.68544
param[1] = 1
prev param = 2.58421
new param = 1.17169
param[2] = 2
prev param = -3.23386
new param = -2.00888
param[3] = 3
prev param = 0.752675
new param = 0.739876
prev delta = 313.582
new delta = 357.624
index = 4
param[0] = 0
prev param = 2.08783
new param = 1.25025
param[1] = 1
prev param = 1.36865
new param = 1.14323
param[2] = 2
prev param = 2.33666
new param = 1.7607
param[3] = 3
prev param = 3.46123
new param = 1.97818
prev delta = 340.883
new delta = 367.308
index = 7
param[0] = 0
prev param = 2.29382
new param = 2.21746
param[1] = 1
prev param = 0.567494
new param = 0.0103043
param[2] = 2
prev param = 0.838304
new param = 0.369965
param[3] = 3
prev param = 0.172124
new param = 0.922934
prev delta = 139.555
new delta = 144.886
index = 1
param[0] = 0
prev param = -0.71706
new param = 0.84064
param[1] = 1
prev param = 2.55419
new param = 1.58378
param[2] = 2
prev param = -3.16121
new param = -5.52695
param[3] = 3
prev param = 0.77478
new param = 0.944845
prev delta = 311.278
new delta = 315.949
index = 2
param[0] = 0
prev param = 1.66526
new param = 2.05013
param[1] = 1
prev param = 1.21384
new param = 0.684162
param[2] = 2
prev param = 0.147783
new param = -1.22361
param[3] = 3
prev param = 0.813122
new param = -0.437358
prev delta = 178.607
new delta = 270.634
index = 5
param[0] = 0
prev param = 0.297804
new param = -0.991271
param[1] = 1
prev param = 0.495811
new param = 0.14893
param[2] = 2
prev param = 0.623415
new param = -0.965819
param[3] = 3
prev param = 1.14356
new param = 0.867244
prev delta = 122.242
new delta = 187.707
index = 7
param[0] = 0
prev param = 2.29382
new param = 1.56517
param[1] = 1
prev param = 0.567494
new param = 2.33034
param[2] = 2
prev param = 0.838304
new param = 1.30466
param[3] = 3
prev param = 0.172124
new param = -0.328081
prev delta = 139.555
new delta = 149.704
index = 7
param[0] = 0
prev param = 1.57519
new param = 3.27925
param[1] = 1
prev param = 2.32937
new param = 2.76956
param[2] = 2
prev param = 1.30935
new param = 1.66189
param[3] = 3
prev param = -0.331434
new param = -0.46376
prev delta = 149.474
new delta = 162.489
index = 6
param[0] = 0
prev param = 1.64224
new param = 1.87249
param[1] = 1
prev param = 1.77407
new param = 2.99039
param[2] = 2
prev param = 0.308997
new param = 2.05689
param[3] = 3
prev param = 2.33584
new param = -0.2411
prev delta = 161.124
new delta = 188.527
index = 4
param[0] = 0
prev param = 2.08256
new param = 3.29181
param[1] = 1
prev param = 1.37517
new param = 3.13227
param[2] = 2
prev param = 2.2267
new param = 2.30138
param[3] = 3
prev param = 3.4273
new param = 2.96962
prev delta = 335.198
new delta = 403.082
index = 7
param[0] = 0
prev param = 3.28131
new param = 2.49927
param[1] = 1
prev param = 2.77497
new param = 4.29711
param[2] = 2
prev param = 1.6284
new param = 1.1145
param[3] = 3
prev param = -0.4094
new param = 0.455619
prev delta = 164.392
new delta = 176.524
index = 7
param[0] = 0
prev param = 2.51779
new param = 4.30468
param[1] = 1
prev param = 4.27987
new param = 5.36365
param[2] = 2
prev param = 1.14888
new param = 2.67398
param[3] = 3
prev param = 0.51826
new param = 2.18157
prev delta = 181.712
new delta = 183.249
index = 6
param[0] = 0
prev param = 1.65882
new param = 1.18448
param[1] = 1
prev param = 1.7807
new param = 1.46467
param[2] = 2
prev param = 0.2751
new param = -0.612823
param[3] = 3
prev param = 2.31379
new param = 1.25578
prev delta = 163.86
new delta = 182.862
index = 0
param[0] = 0
prev param = 2.49034
new param = 2.83882
param[1] = 1
prev param = 1.26555
new param = 0.902487
param[2] = 2
prev param = 0.502513
new param = 0.594459
param[3] = 3
prev param = -0.399938
new param = -0.54408
prev delta = 267.797
new delta = 270.642
index = 2
param[0] = 0
prev param = 1.63372
new param = 0.439749
param[1] = 1
prev param = 1.25015
new param = 2.15549
param[2] = 2
prev param = 0.0937777
new param = -0.648016
param[3] = 3
prev param = 0.905628
new param = 1.99332
prev delta = 180.565
new delta = 188.038
index = 4
param[0] = 0
prev param = 3.25232
new param = 2.14945
param[1] = 1
prev param = 3.11457
new param = 4.30339
param[2] = 2
prev param = 2.24234
new param = 3.26746
param[3] = 3
prev param = 2.91823
new param = 3.81077
prev delta = 398.161
new delta = 401.641
index = 0
param[0] = 0
prev param = 2.46938
new param = 1.4634
param[1] = 1
prev param = 1.29213
new param = 1.45238
param[2] = 2
prev param = 0.51447
new param = 1.56158
param[3] = 3
prev param = -0.327957
new param = -3.06191
prev delta = 265.514
new delta = 299.34
index = 5
param[0] = 0
prev param = 0.554501
new param = 0.67375
param[1] = 1
prev param = 0.712054
new param = 1.75878
param[2] = 2
prev param = 0.713799
new param = -1.0887
param[3] = 3
prev param = 1.18248
new param = -0.0318144
prev delta = 144.683
new delta = 160.243
index = 5
param[0] = 0
prev param = 0.562924
new param = 0.942974
param[1] = 1
prev param = 0.712834
new param = -0.613172
param[2] = 2
prev param = 0.704829
new param = -0.546946
param[3] = 3
prev param = 1.17726
new param = 1.01261
prev delta = 143.674
new delta = 153.602
index = 6
param[0] = 0
prev param = 1.70689
new param = -0.0327505
param[1] = 1
prev param = 1.82544
new param = 2.28407
param[2] = 2
prev param = 0.415883
new param = 0.175891
param[3] = 3
prev param = 2.23423
new param = 2.06998
prev delta = 170.534
new delta = 203.539
index = 3
param[0] = 0
prev param = 2.04704
new param = 1.65994
param[1] = 1
prev param = 1.91775
new param = 2.02966
param[2] = 2
prev param = 0.428637
new param = -0.0138625
param[3] = 3
prev param = 0.496927
new param = 1.66032
prev delta = 421.565
new delta = 433.709
index = 7
param[0] = 0
prev param = 4.19919
new param = 4.44092
param[1] = 1
prev param = 5.24332
new param = 5.45353
param[2] = 2
prev param = 2.54167
new param = 2.11987
param[3] = 3
prev param = 2.1056
new param = 1.66761
prev delta = 190.82
new delta = 217.933
index = 4
param[0] = 0
prev param = 2.13307
new param = 0.469406
param[1] = 1
prev param = 4.19847
new param = 3.31938
param[2] = 2
prev param = 3.19961
new param = 1.32636
param[3] = 3
prev param = 3.65065
new param = 4.55437
prev delta = 393.473
new delta = 435.171
index = 6
param[0] = 0
prev param = 1.70997
new param = 1.10014
param[1] = 1
prev param = 1.85076
new param = 1.4044
param[2] = 2
prev param = 0.460134
new param = 1.03329
param[3] = 3
prev param = 2.20312
new param = 1.9545
prev delta = 170.565
new delta = 181.527
index = 7
param[0] = 0
prev param = 4.42916
new param = 3.73816
param[1] = 1
prev param = 5.44489
new param = 4.76867
param[2] = 2
prev param = 2.11714
new param = 2.10311
param[3] = 3
prev param = 1.66613
new param = 1.31472
prev delta = 216.04
new delta = 219.118
index = 5
param[0] = 0
prev param = 0.614503
new param = 0.0896733
param[1] = 1
prev param = 0.79633
new param = 1.92992
param[2] = 2
prev param = 0.819892
new param = 0.636909
param[3] = 3
prev param = 1.17786
new param = -1.12453
prev delta = 150.674
new delta = 158.822
index = 1
param[0] = 0
prev param = 1.1154
new param = 3.59908
param[1] = 1
prev param = 1.89559
new param = 1.59643
param[2] = 2
prev param = -4.35026
new param = -3.90627
param[3] = 3
prev param = 1.20995
new param = 0.684523
prev delta = 316.276
new delta = 341.845
index = 7
param[0] = 0
prev param = 3.70054
new param = 1.93492
param[1] = 1
prev param = 4.72928
new param = 5.18533
param[2] = 2
prev param = 2.20083
new param = 1.56023
param[3] = 3
prev param = 1.34035
new param = 2.26698
prev delta = 222.351
new delta = 236.499
index = 5
param[0] = 0
prev param = 0.663888
new param = -1.38389
param[1] = 1
prev param = 0.890563
new param = -0.269315
param[2] = 2
prev param = 0.879328
new param = 1.80493
param[3] = 3
prev param = 1.24532
new param = 1.80347
prev delta = 157.45
new delta = 160.978
index = 7
param[0] = 0
prev param = 3.66815
new param = 3.02541
param[1] = 1
prev param = 4.70441
new param = 5.4953
param[2] = 2
prev param = 2.21523
new param = 1.9072
param[3] = 3
prev param = 1.33766
new param = 0.170878
prev delta = 222.786
new delta = 223.928
index = 1
param[0] = 0
prev param = 3.61771
new param = 2.77432
param[1] = 1
prev param = 1.65617
new param = 2.04735
param[2] = 2
prev param = -3.85866
new param = -4.67808
param[3] = 3
prev param = 0.753157
new param = 0.675357
prev delta = 344.468
new delta = 376.387
index = 0
param[0] = 0
prev param = 1.54236
new param = 1.52777
param[1] = 1
prev param = 1.67806
new param = 1.60196
param[2] = 2
prev param = 1.67978
new param = 0.919554
param[3] = 3
prev param = -2.40275
new param = -2.64136
prev delta = 294.325
new delta = 305.394
index = 1
param[0] = 0
prev param = 2.77432
new param = 4.05078
param[1] = 1
prev param = 2.04735
new param = 1.48349
param[2] = 2
prev param = -4.67808
new param = -6.15577
param[3] = 3
prev param = 0.675357
new param = 1.00737
prev delta = 376.387
new delta = 405.352
index = 5
param[0] = 0
prev param = 0.683432
new param = 0.43529
param[1] = 1
prev param = 0.90607
new param = -0.131391
param[2] = 2
prev param = 0.919045
new param = 0.464315
param[3] = 3
prev param = 1.18797
new param = -0.489608
prev delta = 154.753
new delta = 176.56
index = 6
param[0] = 0
prev param = 1.85685
new param = 1.59995
param[1] = 1
prev param = 2.05363
new param = 2.50355
param[2] = 2
prev param = 0.451238
new param = -0.0989512
param[3] = 3
prev param = 2.29901
new param = 2.25037
prev delta = 189.584
new delta = 209.707
index = 3
param[0] = 0
prev param = 1.78289
new param = 0.754592
param[1] = 1
prev param = 2.17693
new param = 3.28739
param[2] = 2
prev param = 0.0285853
new param = 0.0975065
param[3] = 3
prev param = 1.71677
new param = 1.61213
prev delta = 416.988
new delta = 438.124
index = 1
param[0] = 0
prev param = 4.0237
new param = 3.52476
param[1] = 1
prev param = 1.55831
new param = 1.31795
param[2] = 2
prev param = -5.94397
new param = -5.89666
param[3] = 3
prev param = 1.10028
new param = 0.472057
prev delta = 401.992
new delta = 405.706
index = 4
param[0] = 0
prev param = 2.20695
new param = 0.538326
param[1] = 1
prev param = 3.98359
new param = 2.97347
param[2] = 2
prev param = 2.77177
new param = 2.7133
param[3] = 3
prev param = 3.13401
new param = 4.21103
prev delta = 385.803
new delta = 396.412
index = 6
param[0] = 0
prev param = 1.59398
new param = 1.59726
param[1] = 1
prev param = 2.50354
new param = 2.86175
param[2] = 2
prev param = -0.0780879
new param = 0.842731
param[3] = 3
prev param = 2.2564
new param = 1.79212
prev delta = 209.24
new delta = 213.05
index = 6
param[0] = 0
prev param = 1.57107
new param = 1.68062
param[1] = 1
prev param = 2.85539
new param = 3.09005
param[2] = 2
prev param = 0.920836
new param = 0.216456
param[3] = 3
prev param = 1.79816
new param = 1.98672
prev delta = 210.122
new delta = 210.376
index = 6
param[0] = 0
prev param = 1.56086
new param = 2.68555
param[1] = 1
prev param = 2.85889
new param = 2.80148
param[2] = 2
prev param = 0.965575
new param = 2.31837
param[3] = 3
prev param = 1.80139
new param = 3.63075
prev delta = 208.727
new delta = 214.35
index = 4
param[0] = 0
prev param = 2.22019
new param = 2.02294
param[1] = 1
prev param = 3.99073
new param = 4.17981
param[2] = 2
prev param = 2.77236
new param = 0.439305
param[3] = 3
prev param = 3.12527
new param = 2.71768
prev delta = 380.319
new delta = 390.016
index = 5
param[0] = 0
prev param = 0.792419
new param = -0.0597886
param[1] = 1
prev param = 1.05721
new param = 1.70938
param[2] = 2
prev param = 0.956959
new param = -0.258388
param[3] = 3
prev param = 1.25275
new param = 0.0171688
prev delta = 161.669
new delta = 166.089
index = 0
param[0] = 0
prev param = 1.57037
new param = 0.670537
param[1] = 1
prev param = 1.70873
new param = 2.84054
param[2] = 2
prev param = 0.990634
new param = 0.121262
param[3] = 3
prev param = -2.21718
new param = -0.717713
prev delta = 306.114
new delta = 307.119
index = 2
param[0] = 0
prev param = 1.7512
new param = 0.872567
param[1] = 1
prev param = 1.71552
new param = 0.992574
param[2] = 2
prev param = 0.552477
new param = 1.51634
param[3] = 3
prev param = 1.35743
new param = 2.37332
prev delta = 195.982
new delta = 208.898
index = 4
param[0] = 0
prev param = 2.26329
new param = 1.09899
param[1] = 1
prev param = 3.94636
new param = 5.46122
param[2] = 2
prev param = 2.57819
new param = 1.89232
param[3] = 3
prev param = 3.08026
new param = 2.31586
prev delta = 378.479
new delta = 382.91
index = 0
param[0] = 0
prev param = 1.57657
new param = 1.07448
param[1] = 1
prev param = 1.75841
new param = 2.08222
param[2] = 2
prev param = 1.07728
new param = 1.68451
param[3] = 3
prev param = -2.11494
new param = -1.51419
prev delta = 304.205
new delta = 308.588
index = 2
param[0] = 0
prev param = 1.77866
new param = 0.569542
param[1] = 1
prev param = 1.73738
new param = 1.2727
param[2] = 2
prev param = 0.55454
new param = -0.0858208
param[3] = 3
prev param = 1.38742
new param = 1.36787
prev delta = 197.649
new delta = 206.098
index = 4
param[0] = 0
prev param = 2.26329
new param = 3.38929
param[1] = 1
prev param = 3.94636
new param = 1.73218
param[2] = 2
prev param = 2.57819
new param = 3.72317
param[3] = 3
prev param = 3.08026
new param = 2.11131
prev delta = 378.479
new delta = 382.533
index = 1
param[0] = 0
prev param = 3.412
new param = 3.11845
param[1] = 1
prev param = 1.4731
new param = 2.21663
param[2] = 2
prev param = -5.28188
new param = -4.74157
param[3] = 3
prev param = 0.667161
new param = -0.0864369
prev delta = 396.294
new delta = 402.707
index = 5
param[0] = 0
prev param = 0.896677
new param = 1.36553
param[1] = 1
prev param = 1.22396
new param = 1.53402
param[2] = 2
prev param = 1.08172
new param = 1.84198
param[3] = 3
prev param = 1.28485
new param = 2.11458
prev delta = 174.042
new delta = 185.382
index = 4
param[0] = 0
prev param = 2.27691
new param = 3.41716
param[1] = 1
prev param = 3.91833
new param = 1.98916
param[2] = 2
prev param = 2.49375
new param = 2.45597
param[3] = 3
prev param = 3.07116
new param = 2.87127
prev delta = 377.456
new delta = 381.275
index = 2
param[0] = 0
prev param = 1.78441
new param = 2.35269
param[1] = 1
prev param = 1.7385
new param = 0.217332
param[2] = 2
prev param = 0.529171
new param = 1.13376
param[3] = 3
prev param = 1.36196
new param = 1.79929
prev delta = 198.107
new delta = 261.127
index = 4
param[0] = 0
prev param = 3.41609
new param = 1.87172
param[1] = 1
prev param = 1.99352
new param = 2.60367
param[2] = 2
prev param = 2.45689
new param = 1.7016
param[3] = 3
prev param = 2.87486
new param = 4.34648
prev delta = 381.387
new delta = 385.687
index = 5
param[0] = 0
prev param = 1.4438
new param = 1.11407
param[1] = 1
prev param = 1.60687
new param = 2.08104
param[2] = 2
prev param = 1.80049
new param = 1.42153
param[3] = 3
prev param = 2.1004
new param = 2.41419
prev delta = 189.429
new delta = 193.619
index = 4
param[0] = 0
prev param = 1.91159
new param = 3.49569
param[1] = 1
prev param = 2.62329
new param = 3.58421
param[2] = 2
prev param = 1.71036
new param = 0.801562
param[3] = 3
prev param = 4.28601
new param = 2.75927
prev delta = 379.181
new delta = 437.744
index = 2
param[0] = 0
prev param = 1.80445
new param = 0.672104
param[1] = 1
prev param = 1.81948
new param = 1.95268
param[2] = 2
prev param = 0.806433
new param = 0.371889
param[3] = 3
prev param = 1.40917
new param = 0.173291
prev delta = 191.698
new delta = 248.265
index = 0
param[0] = 0
prev param = 1.63081
new param = 1.73954
param[1] = 1
prev param = 1.82262
new param = 0.485966
param[2] = 2
prev param = 0.941669
new param = 1.74119
param[3] = 3
prev param = -1.9466
new param = -3.5788
prev delta = 309.262
new delta = 309.278
index = 3
param[0] = 0
prev param = 1.95839
new param = 2.62389
param[1] = 1
prev param = 2.36378
new param = 1.80496
param[2] = 2
prev param = 0.279343
new param = 0.062456
param[3] = 3
prev param = 1.6877
new param = 0.899275
prev delta = 385.961
new delta = 407.972
index = 5
param[0] = 0
prev param = 1.16961
new param = 1.80288
param[1] = 1
prev param = 2.10434
new param = 1.4534
param[2] = 2
prev param = 1.3775
new param = 2.64242
param[3] = 3
prev param = 2.29741
new param = -0.115084
prev delta = 199.324
new delta = 199.395
index = 6
param[0] = 0
prev param = 2.52309
new param = 2.47254
param[1] = 1
prev param = 2.76216
new param = 2.50463
param[2] = 2
prev param = 2.25851
new param = 1.43155
param[3] = 3
prev param = 2.84086
new param = 1.36638
prev delta = 224.362
new delta = 270.036
index = 5
param[0] = 0
prev param = 1.21186
new param = 1.86473
param[1] = 1
prev param = 2.14319
new param = 3.63848
param[2] = 2
prev param = 1.40796
new param = 0.984285
param[3] = 3
prev param = 2.32468
new param = 1.98118
prev delta = 201.096
new delta = 224.496
index = 6
param[0] = 0
prev param = 2.55143
new param = 2.18258
param[1] = 1
prev param = 2.77495
new param = 2.36826
param[2] = 2
prev param = 2.22042
new param = 2.05005
param[3] = 3
prev param = 2.81368
new param = 3.58347
prev delta = 228.041
new delta = 267.922
index = 2
param[0] = 0
prev param = 1.8339
new param = 3.09032
param[1] = 1
prev param = 1.85433
new param = -0.131141
param[2] = 2
prev param = 0.799961
new param = 1.22033
param[3] = 3
prev param = 1.40943
new param = -0.00616952
prev delta = 194.567
new delta = 197.05
index = 3
param[0] = 0
prev param = 2.0075
new param = 1.65495
param[1] = 1
prev param = 2.40636
new param = 2.84348
param[2] = 2
prev param = 0.334745
new param = 2.46682
param[3] = 3
prev param = 1.73264
new param = 2.46935
prev delta = 379.884
new delta = 388.358
index = 1
param[0] = 0
prev param = 3.0501
new param = 2.38362
param[1] = 1
prev param = 2.35681
new param = 1.51178
param[2] = 2
prev param = -3.83481
new param = -2.57951
param[3] = 3
prev param = 0.247216
new param = 0.223847
prev delta = 388.279
new delta = 401.785
index = 1
param[0] = 0
prev param = 3.04455
new param = 1.98734
param[1] = 1
prev param = 2.38275
new param = 3.50053
param[2] = 2
prev param = -3.74445
new param = -2.05079
param[3] = 3
prev param = 0.282162
new param = -0.667337
prev delta = 386.229
new delta = 400.996
index = 1
param[0] = 0
prev param = 3.04455
new param = 1.76482
param[1] = 1
prev param = 2.38275
new param = 3.11977
param[2] = 2
prev param = -3.74445
new param = -4.12528
param[3] = 3
prev param = 0.282162
new param = 0.692523
prev delta = 386.229
new delta = 417.575
index = 1
param[0] = 0
prev param = 1.76482
new param = 3.25913
param[1] = 1
prev param = 3.11977
new param = 3.62187
param[2] = 2
prev param = -4.12528
new param = -3.55368
param[3] = 3
prev param = 0.692523
new param = -0.832801
prev delta = 417.575
new delta = 440.68
index = 4
param[0] = 0
prev param = 3.39684
new param = 0.323353
param[1] = 1
prev param = 3.53766
new param = 2.40145
param[2] = 2
prev param = 0.826475
new param = 1.57709
param[3] = 3
prev param = 2.72255
new param = 1.67228
prev delta = 421.406
new delta = 428.908
index = 6
param[0] = 0
prev param = 2.5103
new param = 2.88412
param[1] = 1
prev param = 2.75927
new param = 3.25386
param[2] = 2
prev param = 2.17023
new param = 2.57085
param[3] = 3
prev param = 2.66372
new param = 3.91222
prev delta = 225.99
new delta = 227.343
index = 5
param[0] = 0
prev param = 1.98996
new param = 1.43673
param[1] = 1
prev param = 3.66385
new param = 3.28595
param[2] = 2
prev param = 1.10861
new param = 1.64491
param[3] = 3
prev param = 2.15741
new param = 2.58373
prev delta = 229.082
new delta = 236.622
index = 1
param[0] = 0
prev param = 1.78917
new param = -0.347635
param[1] = 1
prev param = 3.1245
new param = 3.55885
param[2] = 2
prev param = -4.03154
new param = -4.60622
param[3] = 3
prev param = 0.727424
new param = 0.0302484
prev delta = 415.589
new delta = 452.394
index = 5
param[0] = 0
prev param = 2.00406
new param = 4.46882
param[1] = 1
prev param = 3.6516
new param = 3.9455
param[2] = 2
prev param = 1.1223
new param = -0.0839691
param[3] = 3
prev param = 2.17167
new param = 2.21406
prev delta = 226.491
new delta = 234.28
index = 0
param[0] = 0
prev param = 1.81423
new param = 0.68357
param[1] = 1
prev param = 2.10602
new param = 1.99722
param[2] = 2
prev param = 1.15106
new param = -0.274513
param[3] = 3
prev param = -1.25393
new param = -2.58855
prev delta = 309.528
new delta = 318.105
index = 5
param[0] = 0
prev param = 1.99267
new param = 1.62281
param[1] = 1
prev param = 3.62852
new param = 5.35353
param[2] = 2
prev param = 1.11775
new param = 0.227085
param[3] = 3
prev param = 2.16088
new param = 3.54251
prev delta = 224.535
new delta = 239.189
index = 2
param[0] = 0
prev param = 1.94027
new param = 2.62539
param[1] = 1
prev param = 2.01946
new param = 0.788847
param[2] = 2
prev param = 0.768401
new param = 1.00163
param[3] = 3
prev param = 1.43977
new param = 1.63159
prev delta = 201.894
new delta = 205.126
index = 5
param[0] = 0
prev param = 1.99128
new param = 2.43831
param[1] = 1
prev param = 3.61419
new param = 2.89145
param[2] = 2
prev param = 1.08662
new param = 1.07293
param[3] = 3
prev param = 2.14731
new param = 4.09576
prev delta = 225.44
new delta = 247.071
index = 5
param[0] = 0
prev param = 2.43672
new param = 1.44405
param[1] = 1
prev param = 2.89363
new param = 3.27186
param[2] = 2
prev param = 1.03978
new param = 3.59656
param[3] = 3
prev param = 4.07501
new param = 4.26134
prev delta = 248.4
new delta = 297.743
index = 2
param[0] = 0
prev param = 1.96812
new param = 2.50293
param[1] = 1
prev param = 2.05238
new param = 2.6966
param[2] = 2
prev param = 0.771681
new param = 0.511161
param[3] = 3
prev param = 1.49426
new param = 1.01494
prev delta = 203.893
new delta = 235.551
index = 1
param[0] = 0
prev param = 1.8376
new param = 2.59009
param[1] = 1
prev param = 3.14858
new param = 1.58024
param[2] = 2
prev param = -3.83114
new param = -3.13231
param[3] = 3
prev param = 0.789748
new param = 0.102779
prev delta = 409.386
new delta = 458.378
index = 7
param[0] = 0
prev param = 3.54183
new param = 4.45629
param[1] = 1
prev param = 4.33678
new param = 3.30319
param[2] = 2
prev param = 1.69041
new param = 2.44275
param[3] = 3
prev param = 1.54285
new param = 2.80684
prev delta = 248.623
new delta = 258.318
index = 3
param[0] = 0
prev param = 1.84279
new param = 1.74098
param[1] = 1
prev param = 2.94056
new param = 2.95483
param[2] = 2
prev param = 2.40259
new param = 1.62577
param[3] = 3
prev param = 2.42085
new param = 3.58685
prev delta = 374.182
new delta = 400.697
index = 2
param[0] = 0
prev param = 2.52954
new param = 1.81837
param[1] = 1
prev param = 2.70959
new param = 3.43144
param[2] = 2
prev param = 0.537156
new param = 2.86707
param[3] = 3
prev param = 1.05897
new param = 1.21048
prev delta = 237.009
new delta = 261.107
index = 4
param[0] = 0
prev param = 3.26841
new param = 3.64562
param[1] = 1
prev param = 3.4416
new param = 1.75433
param[2] = 2
prev param = 0.710112
new param = 0.611581
param[3] = 3
prev param = 2.58312
new param = 2.64053
prev delta = 412.171
new delta = 419.618
index = 6
param[0] = 0
prev param = 2.86141
new param = 2.10769
param[1] = 1
prev param = 3.27005
new param = 7.52479
param[2] = 2
prev param = 2.40296
new param = 2.03145
param[3] = 3
prev param = 3.66972
new param = 3.38393
prev delta = 238.957
new delta = 280.789
index = 2
param[0] = 0
prev param = 1.82699
new param = 3.23673
param[1] = 1
prev param = 3.4342
new param = 2.61664
param[2] = 2
prev param = 2.86458
new param = 4.80224
param[3] = 3
prev param = 1.25115
new param = 0.338693
prev delta = 261.218
new delta = 265.68
index = 1
param[0] = 0
prev param = 1.90809
new param = 1.33484
param[1] = 1
prev param = 3.15607
new param = 5.28035
param[2] = 2
prev param = -3.47504
new param = -4.47197
param[3] = 3
prev param = 0.900709
new param = 0.852368
prev delta = 400.443
new delta = 410.271
index = 4
param[0] = 0
prev param = 3.22998
new param = 3.55069
param[1] = 1
prev param = 3.47398
new param = 3.57488
param[2] = 2
prev param = 0.802369
new param = 1.06822
param[3] = 3
prev param = 2.62806
new param = 1.4551
prev delta = 409.468
new delta = 457.969
index = 1
param[0] = 0
prev param = 1.94523
new param = 2.77496
param[1] = 1
prev param = 3.10608
new param = 1.9316
param[2] = 2
prev param = -3.20122
new param = -4.41852
param[3] = 3
prev param = 0.863395
new param = -0.26089
prev delta = 396.574
new delta = 416.242
index = 5
param[0] = 0
prev param = 2.40556
new param = 0.897155
param[1] = 1
prev param = 2.98118
new param = 3.47134
param[2] = 2
prev param = 1.03754
new param = 1.17468
param[3] = 3
prev param = 3.94094
new param = 4.10425
prev delta = 257.251
new delta = 280.334
index = 4
param[0] = 0
prev param = 3.51132
new param = 2.24213
param[1] = 1
prev param = 3.65751
new param = 3.85332
param[2] = 2
prev param = 1.10221
new param = 0.65076
param[3] = 3
prev param = 1.48904
new param = 1.85928
prev delta = 448.821
new delta = 454.708
index = 6
param[0] = 0
prev param = 2.12788
new param = 2.02821
param[1] = 1
prev param = 7.17352
new param = 7.25416
param[2] = 2
prev param = 2.12905
new param = 1.50419
param[3] = 3
prev param = 3.25079
new param = 3.97108
prev delta = 282.804
new delta = 292.451
index = 2
param[0] = 0
prev param = 1.8938
new param = 2.26136
param[1] = 1
prev param = 3.48907
new param = 3.24136
param[2] = 2
prev param = 2.83778
new param = 0.943193
param[3] = 3
prev param = 1.38683
new param = 0.391297
prev delta = 262.254
new delta = 272.887
index = 3
param[0] = 0
prev param = 1.97311
new param = 0.627488
param[1] = 1
prev param = 3.10385
new param = 2.95757
param[2] = 2
prev param = 2.25733
new param = 2.16936
param[3] = 3
prev param = 2.58529
new param = 2.29136
prev delta = 365.129
new delta = 368.884
index = 7
param[0] = 0
prev param = 4.25958
new param = 3.68549
param[1] = 1
prev param = 3.41778
new param = 2.60397
param[2] = 2
prev param = 2.48947
new param = 3.3439
param[3] = 3
prev param = 2.84281
new param = 3.45889
prev delta = 260.726
new delta = 282.283
index = 6
param[0] = 0
prev param = 2.02471
new param = 3.10097
param[1] = 1
prev param = 7.16142
new param = 6.30702
param[2] = 2
prev param = 1.48797
new param = 1.27944
param[3] = 3
prev param = 3.89482
new param = 2.76521
prev delta = 295.029
new delta = 337.93
index = 0
param[0] = 0
prev param = 1.97767
new param = 1.44356
param[1] = 1
prev param = 2.21423
new param = 2.44042
param[2] = 2
prev param = 1.09957
new param = 1.70701
param[3] = 3
prev param = -0.629748
new param = 1.67532
prev delta = 307.94
new delta = 357.632
index = 6
param[0] = 0
prev param = 3.09978
new param = 4.85255
param[1] = 1
prev param = 6.29102
new param = 4.96798
param[2] = 2
prev param = 1.26504
new param = 2.2615
param[3] = 3
prev param = 2.74951
new param = 3.71633
prev delta = 337.672
new delta = 345.574
index = 0
param[0] = 0
prev param = 1.46442
new param = 0.441371
param[1] = 1
prev param = 2.44735
new param = 1.76873
param[2] = 2
prev param = 1.75426
new param = 3.03133
param[3] = 3
prev param = 1.74265
new param = 2.8402
prev delta = 352.104
new delta = 390.34
index = 5
param[0] = 0
prev param = 2.45663
new param = 2.8869
param[1] = 1
prev param = 3.03684
new param = 1.64354
param[2] = 2
prev param = 1.10792
new param = -0.132698
param[3] = 3
prev param = 3.85693
new param = 4.91799
prev delta = 264.183
new delta = 264.21
index = 2
param[0] = 0
prev param = 1.96418
new param = -0.688599
param[1] = 1
prev param = 3.47815
new param = 1.50786
param[2] = 2
prev param = 2.6875
new param = 3.02971
param[3] = 3
prev param = 1.4404
new param = 2.19918
prev delta = 270.445
new delta = 283.335
index = 3
param[0] = 0
prev param = 1.96804
new param = 1.67615
param[1] = 1
prev param = 3.09437
new param = 0.680085
param[2] = 2
prev param = 2.13471
new param = 2.28493
param[3] = 3
prev param = 2.55734
new param = 2.76076
prev delta = 365.616
new delta = 373.662
index = 5
param[0] = 0
prev param = 2.45665
new param = 1.86104
param[1] = 1
prev param = 3.04022
new param = 3.51905
param[2] = 2
prev param = 1.11515
new param = 0.969378
param[3] = 3
prev param = 3.84912
new param = 3.82428
prev delta = 264.939
new delta = 267.367
index = 0
param[0] = 0
prev param = 1.47979
new param = 2.36986
param[1] = 1
prev param = 2.46237
new param = 1.4038
param[2] = 2
prev param = 1.76829
new param = 1.46184
param[3] = 3
prev param = 1.75076
new param = 2.53925
prev delta = 352.013
new delta = 361.68
index = 6
param[0] = 0
prev param = 4.81762
new param = 4.31568
param[1] = 1
prev param = 4.93348
new param = 5.6626
param[2] = 2
prev param = 2.34772
new param = 0.616004
param[3] = 3
prev param = 3.7075
new param = 3.27615
prev delta = 344.817
new delta = 399.916
index = 3
param[0] = 0
prev param = 1.9751
new param = 2.78294
param[1] = 1
prev param = 3.09245
new param = 2.19855
param[2] = 2
prev param = 2.12137
new param = 2.45438
param[3] = 3
prev param = 2.57435
new param = 3.35358
prev delta = 364.306
new delta = 374.739
index = 6
param[0] = 0
prev param = 4.81193
new param = 3.34598
param[1] = 1
prev param = 4.93164
new param = 3.23608
param[2] = 2
prev param = 2.35796
new param = 3.11011
param[3] = 3
prev param = 3.70328
new param = 2.6823
prev delta = 344.929
new delta = 358.889
index = 6
param[0] = 0
prev param = 3.34781
new param = 4.17502
param[1] = 1
prev param = 3.24036
new param = 2.37148
param[2] = 2
prev param = 3.09412
new param = 4.31548
param[3] = 3
prev param = 2.70042
new param = 2.96237
prev delta = 357.204
new delta = 369.897
index = 1
param[0] = 0
prev param = 2.00113
new param = 0.455816
param[1] = 1
prev param = 3.07679
new param = 2.78036
param[2] = 2
prev param = -2.58805
new param = -3.32093
param[3] = 3
prev param = 1.06785
new param = 0.687837
prev delta = 386.667
new delta = 392.012
index = 1
param[0] = 0
prev param = 2.00113
new param = 2.94574
param[1] = 1
prev param = 3.07679
new param = 1.89388
param[2] = 2
prev param = -2.58805
new param = 0.217164
param[3] = 3
prev param = 1.06785
new param = 1.27891
prev delta = 386.667
new delta = 397.424
index = 0
param[0] = 0
prev param = 1.50552
new param = 2.13256
param[1] = 1
prev param = 2.47121
new param = 3.50692
param[2] = 2
prev param = 1.71351
new param = 3.04901
param[3] = 3
prev param = 1.76154
new param = 2.19527
prev delta = 352.258
new delta = 353.481
index = 3
param[0] = 0
prev param = 1.99928
new param = 3.93407
param[1] = 1
prev param = 3.0831
new param = 4.65437
param[2] = 2
prev param = 2.05307
new param = 3.76915
param[3] = 3
prev param = 2.54845
new param = 2.2185
prev delta = 362.561
new delta = 373.958
index = 6
param[0] = 0
prev param = 4.14428
new param = 3.62569
param[1] = 1
prev param = 2.3772
new param = 2.74211
param[2] = 2
prev param = 4.29338
new param = 3.69488
param[3] = 3
prev param = 2.94061
new param = 2.47784
prev delta = 366.656
new delta = 377.012
index = 4
param[0] = 0
prev param = 2.28677
new param = 2.12776
param[1] = 1
prev param = 3.79691
new param = 4.253
param[2] = 2
prev param = 0.721668
new param = -0.553582
param[3] = 3
prev param = 1.82746
new param = 1.46517
prev delta = 443.206
new delta = 443.757
index = 2
param[0] = 0
prev param = 2.00245
new param = 1.86834
param[1] = 1
prev param = 3.42024
new param = 1.99133
param[2] = 2
prev param = 2.57558
new param = 2.51984
param[3] = 3
prev param = 1.52746
new param = 2.258
prev delta = 271.083
new delta = 313.523
index = 1
param[0] = 0
prev param = 2.93704
new param = 4.73794
param[1] = 1
prev param = 1.94013
new param = 3.04618
param[2] = 2
prev param = 0.285801
new param = -0.0541582
param[3] = 3
prev param = 1.31553
new param = 0.0600949
prev delta = 396.913
new delta = 404.538
index = 0
param[0] = 0
prev param = 2.14968
new param = 2.57621
param[1] = 1
prev param = 3.51118
new param = 2.88685
param[2] = 2
prev param = 3.09074
new param = 4.25498
param[3] = 3
prev param = 2.21538
new param = 2.60035
prev delta = 351.266
new delta = 365.586
index = 6
param[0] = 0
prev param = 3.64766
new param = 3.82676
param[1] = 1
prev param = 2.7229
new param = 2.73736
param[2] = 2
prev param = 3.62582
new param = 3.40955
param[3] = 3
prev param = 2.48167
new param = 3.03303
prev delta = 379.112
new delta = 380.434
index = 4
param[0] = 0
prev param = 2.34372
new param = 0.940108
param[1] = 1
prev param = 3.82418
new param = 2.306
param[2] = 2
prev param = 0.806249
new param = 1.24997
param[3] = 3
prev param = 1.79584
new param = 1.63593
prev delta = 445.016
new delta = 447.467
index = 4
param[0] = 0
prev param = 2.34831
new param = 3.65262
param[1] = 1
prev param = 3.82871
new param = 2.12175
param[2] = 2
prev param = 0.815209
new param = -0.64
param[3] = 3
prev param = 1.79324
new param = 2.20962
prev delta = 445.12
new delta = 489.806
index = 4
param[0] = 0
prev param = 2.34763
new param = 2.02123
param[1] = 1
prev param = 3.8286
new param = 2.99618
param[2] = 2
prev param = 0.815082
new param = 1.37328
param[3] = 3
prev param = 1.79255
new param = 1.06522
prev delta = 444.939
new delta = 448.56
index = 1
param[0] = 0
prev param = 2.9133
new param = 2.09538
param[1] = 1
prev param = 1.96775
new param = 3.43803
param[2] = 2
prev param = 0.250412
new param = 1.22531
param[3] = 3
prev param = 1.36204
new param = 1.58068
prev delta = 393.914
new delta = 405.569
index = 6
param[0] = 0
prev param = 3.8303
new param = 6.19917
param[1] = 1
prev param = 2.7738
new param = 3.37825
param[2] = 2
prev param = 3.35999
new param = 4.42166
param[3] = 3
prev param = 3.00232
new param = 2.35455
prev delta = 381.777
new delta = 399.959
index = 6
param[0] = 0
prev param = 6.19917
new param = 7.15036
param[1] = 1
prev param = 3.37825
new param = 2.67203
param[2] = 2
prev param = 4.42166
new param = 4.73179
param[3] = 3
prev param = 2.35455
new param = 2.59481
prev delta = 399.959
new delta = 407.701
index = 1
param[0] = 0
prev param = 2.15425
new param = 4.27434
param[1] = 1
prev param = 3.45573
new param = 3.04648
param[2] = 2
prev param = 1.24825
new param = 0.420902
param[3] = 3
prev param = 1.58344
new param = 1.48623
prev delta = 405.871
new delta = 414.705
index = 4
param[0] = 0
prev param = 2.09171
new param = 3.20239
param[1] = 1
prev param = 3.00764
new param = 3.70474
param[2] = 2
prev param = 1.44208
new param = 0.968363
param[3] = 3
prev param = 1.06667
new param = 1.58904
prev delta = 446.282
new delta = 455.478
index = 1
param[0] = 0
prev param = 2.18596
new param = 2.60884
param[1] = 1
prev param = 3.4579
new param = 3.0568
param[2] = 2
prev param = 1.29064
new param = -0.134975
param[3] = 3
prev param = 1.602
new param = 1.02812
prev delta = 404.541
new delta = 424.459
index = 3
param[0] = 0
prev param = 3.98369
new param = 4.39456
param[1] = 1
prev param = 4.54391
new param = 4.38351
param[2] = 2
prev param = 3.7432
new param = 4.6557
param[3] = 3
prev param = 2.18928
new param = 4.26833
prev delta = 375.175
new delta = 409.241
index = 0
param[0] = 0
prev param = 2.59858
new param = 1.00304
param[1] = 1
prev param = 2.95016
new param = 3.89027
param[2] = 2
prev param = 4.06698
new param = 3.41918
param[3] = 3
prev param = 2.56781
new param = 2.42319
prev delta = 370.767
new delta = 382.344
index = 2
param[0] = 0
prev param = 2.05375
new param = 2.16228
param[1] = 1
prev param = 3.4165
new param = 5.34561
param[2] = 2
prev param = 2.56544
new param = 1.92761
param[3] = 3
prev param = 1.52643
new param = 1.49746
prev delta = 283.498
new delta = 295.73
index = 5
param[0] = 0
prev param = 2.7607
new param = 2.80582
param[1] = 1
prev param = 3.10682
new param = 2.25278
param[2] = 2
prev param = 1.5323
new param = 0.425379
param[3] = 3
prev param = 3.68562
new param = 2.43439
prev delta = 282.472
new delta = 293.932
index = 3
param[0] = 0
prev param = 4.34031
new param = 5.74926
param[1] = 1
prev param = 4.39021
new param = 4.94903
param[2] = 2
prev param = 4.61206
new param = 4.59366
param[3] = 3
prev param = 4.20687
new param = 4.35355
prev delta = 406.917
new delta = 415.973
index = 1
param[0] = 0
prev param = 2.20019
new param = 2.67304
param[1] = 1
prev param = 3.48843
new param = 2.98794
param[2] = 2
prev param = 1.35767
new param = 1.93198
param[3] = 3
prev param = 1.62088
new param = 1.58094
prev delta = 402.791
new delta = 447.138
index = 5
param[0] = 0
prev param = 2.82672
new param = 4.10059
param[1] = 1
prev param = 2.25578
new param = 2.25499
param[2] = 2
prev param = 0.498954
new param = 0.90415
param[3] = 3
prev param = 2.45289
new param = 1.67241
prev delta = 294.51
new delta = 322.205
index = 0
param[0] = 0
prev param = 2.61774
new param = 2.00413
param[1] = 1
prev param = 2.94599
new param = 3.57136
param[2] = 2
prev param = 4.04188
new param = 4.24774
param[3] = 3
prev param = 2.52154
new param = 2.84304
prev delta = 371.582
new delta = 389.416
index = 0
param[0] = 0
prev param = 2.01759
new param = 0.520051
param[1] = 1
prev param = 3.53892
new param = 4.57702
param[2] = 2
prev param = 4.19025
new param = 5.20942
param[3] = 3
prev param = 2.80982
new param = 3.19175
prev delta = 388.864
new delta = 442.438
index = 5
param[0] = 0
prev param = 4.10557
new param = 4.85744
param[1] = 1
prev param = 2.28325
new param = 1.12405
param[2] = 2
prev param = 0.949017
new param = -0.391643
param[3] = 3
prev param = 1.70757
new param = 2.35838
prev delta = 324.27
new delta = 332.548
index = 2
param[0] = 0
prev param = 2.25507
new param = 4.09521
param[1] = 1
prev param = 5.13505
new param = 3.13627
param[2] = 2
prev param = 2.00605
new param = 2.41426
param[3] = 3
prev param = 1.5583
new param = 1.52608
prev delta = 299.432
new delta = 329.757
index = 3
param[0] = 0
prev param = 5.50861
new param = 5.41121
param[1] = 1
prev param = 4.87276
new param = 5.25373
param[2] = 2
prev param = 4.55724
new param = 3.03265
param[3] = 3
prev param = 4.24707
new param = 4.47
prev delta = 413.552
new delta = 435.31
index = 6
param[0] = 0
prev param = 6.6017
new param = 6.88278
param[1] = 1
prev param = 2.76841
new param = 2.43062
param[2] = 2
prev param = 4.50802
new param = 4.55334
param[3] = 3
prev param = 2.55696
new param = 3.89375
prev delta = 405.641
new delta = 422.804
index = 1
param[0] = 0
prev param = 2.88433
new param = 2.64708
param[1] = 1
prev param = 2.97753
new param = -0.552576
param[2] = 2
prev param = 1.99071
new param = -0.426838
param[3] = 3
prev param = 1.6552
new param = 1.81856
prev delta = 446.185
new delta = 466.962
index = 4
param[0] = 0
prev param = 3.26102
new param = 4.35446
param[1] = 1
prev param = 3.76267
new param = 3.58674
param[2] = 2
prev param = 1.28172
new param = -0.158037
param[3] = 3
prev param = 1.84768
new param = 1.38153
prev delta = 440.392
new delta = 446.731
index = 7
param[0] = 0
prev param = 4.14049
new param = 4.639
param[1] = 1
prev param = 3.58759
new param = 3.59973
param[2] = 2
prev param = 2.30085
new param = 3.66692
param[3] = 3
prev param = 2.78672
new param = 1.99158
prev delta = 281.95
new delta = 299.061
